{"response":[{"ID":"0","0":"0","NPC_ID":"18001","1":"18001","ITEM_ID":"1806","2":"1806","MIN":"1","3":"1","MAX":"1","4":"1","CATEGORY":"-1","5":"-1","CHANCE":"10868","6":"10868","NAME":"Recipe: Soulshot: B-Grade","7":"Recipe: Soulshot: B-Grade"},{"ID":"1","0":"1","NPC_ID":"18001","1":"18001","ITEM_ID":"57","2":"57","MIN":"765","3":"765","MAX":"1528","4":"1528","CATEGORY":"0","5":"0","CHANCE":"700000","6":"700000","NAME":"Adena","7":"Adena"},{"ID":"2","0":"2","NPC_ID":"18001","1":"18001","ITEM_ID":"2397","2":"2397","MIN":"1","3":"1","MAX":"1","4":"1","CATEGORY":"1","5":"1","CHANCE":"12","6":"12","NAME":"Tunic of Zubei","7":"Tunic of Zubei"},{"ID":"3","0":"3","NPC_ID":"18001","1":"18001","ITEM_ID":"2402","2":"2402","MIN":"1","3":"1","MAX":"1","4":"1","CATEGORY":"1","5":"1","CHANCE":"19","6":"19","NAME":"Stockings of Zubei","7":"Stockings of Zubei"},{"ID":"4","0":"4","NPC_ID":"18001","1":"18001","ITEM_ID":"2406","2":"2406","MIN":"1","3":"1","MAX":"1","4":"1","CATEGORY":"1","5":"1","CHANCE":"8","6":"8","NAME":"Avadon Robe","7":"Avadon Robe"},{"ID":"5","0":"5","NPC_ID":"18001","1":"18001","ITEM_ID":"4069","2":"4069","MIN":"1","3":"1","MAX":"1","4":"1","CATEGORY":"1","5":"1","CHANCE":"2102","6":"2102","NAME":"Tunic of Zubei Fabric","7":"Tunic of Zubei Fabric"},{"ID":"6","0":"6","NPC_ID":"18001","1":"18001","ITEM_ID":"4070","2":"4070","MIN":"1","3":"1","MAX":"1","4":"1","CATEGORY":"1","5":"1","CHANCE":"3192","6":"3192","NAME":"Stockings of Zubei Fabric","7":"Stockings of Zubei Fabric"},{"ID":"7","0":"7","NPC_ID":"18001","1":"18001","ITEM_ID":"4071","2":"4071","MIN":"1","3":"1","MAX":"1","4":"1","CATEGORY":"1","5":"1","CHANCE":"1615","6":"1615","NAME":"Avadon Robe Fabric","7":"Avadon Robe Fabric"},{"ID":"8","0":"8","NPC_ID":"18001","1":"18001","ITEM_ID":"1419","2":"1419","MIN":"1","3":"1","MAX":"1","4":"1","CATEGORY":"2","5":"2","CHANCE":"200000","6":"200000","NAME":"Blood Mark","7":"Blood Mark"},{"ID":"9","0":"9","NPC_ID":"18001","1":"18001","ITEM_ID":"1864","2":"1864","MIN":"1","3":"1","MAX":"1","4":"1","CATEGORY":"2","5":"2","CHANCE":"178349","6":"178349","NAME":"Stem","7":"Stem"},{"ID":"10","0":"10","NPC_ID":"18001","1":"18001","ITEM_ID":"1866","2":"1866","MIN":"1","3":"1","MAX":"1","4":"1","CATEGORY":"2","5":"2","CHANCE":"59450","6":"59450","NAME":"Suede","7":"Suede"},{"ID":"11","0":"11","NPC_ID":"18001","1":"18001","ITEM_ID":"1878","2":"1878","MIN":"1","3":"1","MAX":"1","4":"1","CATEGORY":"2","5":"2","CHANCE":"35670","6":"35670","NAME":"Braided Hemp","7":"Braided Hemp"},{"ID":"12","0":"12","NPC_ID":"18001","1":"18001","ITEM_ID":"1885","2":"1885","MIN":"1","3":"1","MAX":"1","4":"1","CATEGORY":"2","5":"2","CHANCE":"7432","6":"7432","NAME":"High Grade Suede","7":"High Grade Suede"},{"ID":"13","0":"13","NPC_ID":"18001","1":"18001","ITEM_ID":"1889","2":"1889","MIN":"1","3":"1","MAX":"1","4":"1","CATEGORY":"2","5":"2","CHANCE":"5945","6":"5945","NAME":"Compound Braid","7":"Compound Braid"},{"ID":"14","0":"14","NPC_ID":"18001","1":"18001","ITEM_ID":"4197","2":"4197","MIN":"1","3":"1","MAX":"1","4":"1","CATEGORY":"2","5":"2","CHANCE":"68","6":"68","NAME":"Recipe: Demon Dagger","7":"Recipe: Demon Dagger"},{"ID":"15","0":"15","NPC_ID":"18003","1":"18003","ITEM_ID":"1871","2":"1871","MIN":"1","3":"1","MAX":"1","4":"1","CATEGORY":"-1","5":"-1","CHANCE":"9797","6":"9797","NAME":"Charcoal","7":"Charcoal"},{"ID":"16","0":"16","NPC_ID":"18010","1":"18010","ITEM_ID":"57","2":"57","MIN":"173","3":"173","MAX":"347","4":"347","CATEGORY":"0","5":"0","CHANCE":"700000","6":"700000","NAME":"Adena","7":"Adena"},{"ID":"17","0":"17","NPC_ID":"18012","1":"18012","ITEM_ID":"57","2":"57","MIN":"148","3":"148","MAX":"293","4":"293","CATEGORY":"0","5":"0","CHANCE":"700000","6":"700000","NAME":"Adena","7":"Adena"},{"ID":"18","0":"18","NPC_ID":"18013","1":"18013","ITEM_ID":"57","2":"57","MIN":"148","3":"148","MAX":"293","4":"293","CATEGORY":"0","5":"0","CHANCE":"700000","6":"700000","NAME":"Adena","7":"Adena"},{"ID":"19","0":"19","NPC_ID":"18014","1":"18014","ITEM_ID":"57","2":"57","MIN":"228","3":"228","MAX":"455","4":"455","CATEGORY":"0","5":"0","CHANCE":"700000","6":"700000","NAME":"Adena","7":"Adena"},{"ID":"20","0":"20","NPC_ID":"18015","1":"18015","ITEM_ID":"57","2":"57","MIN":"194","3":"194","MAX":"387","4":"387","CATEGORY":"0","5":"0","CHANCE":"700000","6":"700000","NAME":"Adena","7":"Adena"},{"ID":"21","0":"21","NPC_ID":"18017","1":"18017","ITEM_ID":"57","2":"57","MIN":"194","3":"194","MAX":"387","4":"387","CATEGORY":"0","5":"0","CHANCE":"700000","6":"700000","NAME":"Adena","7":"Adena"},{"ID":"22","0":"22","NPC_ID":"18018","1":"18018","ITEM_ID":"57","2":"57","MIN":"253","3":"253","MAX":"504","4":"504","CATEGORY":"0","5":"0","CHANCE":"700000","6":"700000","NAME":"Adena","7":"Adena"},{"ID":"23","0":"23","NPC_ID":"18020","1":"18020","ITEM_ID":"57","2":"57","MIN":"305","3":"305","MAX":"611","4":"611","CATEGORY":"0","5":"0","CHANCE":"700000","6":"700000","NAME":"Adena","7":"Adena"},{"ID":"24","0":"24","NPC_ID":"18022","1":"18022","ITEM_ID":"57","2":"57","MIN":"265","3":"265","MAX":"529","4":"529","CATEGORY":"0","5":"0","CHANCE":"700000","6":"700000","NAME":"Adena","7":"Adena"},{"ID":"25","0":"25","NPC_ID":"18023","1":"18023","ITEM_ID":"57","2":"57","MIN":"265","3":"265","MAX":"529","4":"529","CATEGORY":"0","5":"0","CHANCE":"700000","6":"700000","NAME":"Adena","7":"Adena"},{"ID":"26","0":"26","NPC_ID":"18024","1":"18024","ITEM_ID":"57","2":"57","MIN":"381","3":"381","MAX":"761","4":"761","CATEGORY":"0","5":"0","CHANCE":"700000","6":"700000","NAME":"Adena","7":"Adena"},{"ID":"27","0":"27","NPC_ID":"18025","1":"18025","ITEM_ID":"57","2":"57","MIN":"335","3":"335","MAX":"669","4":"669","CATEGORY":"0","5":"0","CHANCE":"700000","6":"700000","NAME":"Adena","7":"Adena"},{"ID":"28","0":"28","NPC_ID":"18027","1":"18027","ITEM_ID":"57","2":"57","MIN":"335","3":"335","MAX":"669","4":"669","CATEGORY":"0","5":"0","CHANCE":"700000","6":"700000","NAME":"Adena","7":"Adena"},{"ID":"29","0":"29","NPC_ID":"18028","1":"18028","ITEM_ID":"57","2":"57","MIN":"414","3":"414","MAX":"829","4":"829","CATEGORY":"0","5":"0","CHANCE":"700000","6":"700000","NAME":"Adena","7":"Adena"},{"ID":"30","0":"30","NPC_ID":"18030","1":"18030","ITEM_ID":"57","2":"57","MIN":"486","3":"486","MAX":"972","4":"972","CATEGORY":"0","5":"0","CHANCE":"700000","6":"700000","NAME":"Adena","7":"Adena"},{"ID":"31","0":"31","NPC_ID":"18032","1":"18032","ITEM_ID":"57","2":"57","MIN":"431","3":"431","MAX":"863","4":"863","CATEGORY":"0","5":"0","CHANCE":"700000","6":"700000","NAME":"Adena","7":"Adena"},{"ID":"32","0":"32","NPC_ID":"18033","1":"18033","ITEM_ID":"57","2":"57","MIN":"431","3":"431","MAX":"863","4":"863","CATEGORY":"0","5":"0","CHANCE":"700000","6":"700000","NAME":"Adena","7":"Adena"},{"ID":"33","0":"33","NPC_ID":"18034","1":"18034","ITEM_ID":"57","2":"57","MIN":"585","3":"585","MAX":"1171","4":"1171","CATEGORY":"0","5":"0","CHANCE":"700000","6":"700000","NAME":"Adena","7":"Adena"},{"ID":"34","0":"34","NPC_ID":"18035","1":"18035","ITEM_ID":"57","2":"57","MIN":"525","3":"525","MAX":"1049","4":"1049","CATEGORY":"0","5":"0","CHANCE":"700000","6":"700000","NAME":"Adena","7":"Adena"},{"ID":"35","0":"35","NPC_ID":"18037","1":"18037","ITEM_ID":"57","2":"57","MIN":"525","3":"525","MAX":"1049","4":"1049","CATEGORY":"0","5":"0","CHANCE":"700000","6":"700000","NAME":"Adena","7":"Adena"},{"ID":"36","0":"36","NPC_ID":"18038","1":"18038","ITEM_ID":"57","2":"57","MIN":"629","3":"629","MAX":"1257","4":"1257","CATEGORY":"0","5":"0","CHANCE":"700000","6":"700000","NAME":"Adena","7":"Adena"},{"ID":"37","0":"37","NPC_ID":"18040","1":"18040","ITEM_ID":"57","2":"57","MIN":"721","3":"721","MAX":"1443","4":"1443","CATEGORY":"0","5":"0","CHANCE":"700000","6":"700000","NAME":"Adena","7":"Adena"},{"ID":"38","0":"38","NPC_ID":"18042","1":"18042","ITEM_ID":"57","2":"57","MIN":"651","3":"651","MAX":"1302","4":"1302","CATEGORY":"0","5":"0","CHANCE":"700000","6":"700000","NAME":"Adena","7":"Adena"},{"ID":"39","0":"39","NPC_ID":"18043","1":"18043","ITEM_ID":"57","2":"57","MIN":"651","3":"651","MAX":"1302","4":"1302","CATEGORY":"0","5":"0","CHANCE":"700000","6":"700000","NAME":"Adena","7":"Adena"},{"ID":"40","0":"40","NPC_ID":"18044","1":"18044","ITEM_ID":"57","2":"57","MIN":"848","3":"848","MAX":"1697","4":"1697","CATEGORY":"0","5":"0","CHANCE":"700000","6":"700000","NAME":"Adena","7":"Adena"},{"ID":"41","0":"41","NPC_ID":"18045","1":"18045","ITEM_ID":"57","2":"57","MIN":"770","3":"770","MAX":"1541","4":"1541","CATEGORY":"0","5":"0","CHANCE":"700000","6":"700000","NAME":"Adena","7":"Adena"},{"ID":"42","0":"42","NPC_ID":"18047","1":"18047","ITEM_ID":"57","2":"57","MIN":"770","3":"770","MAX":"1541","4":"1541","CATEGORY":"0","5":"0","CHANCE":"700000","6":"700000","NAME":"Adena","7":"Adena"},{"ID":"43","0":"43","NPC_ID":"18048","1":"18048","ITEM_ID":"57","2":"57","MIN":"902","3":"902","MAX":"1804","4":"1804","CATEGORY":"0","5":"0","CHANCE":"700000","6":"700000","NAME":"Adena","7":"Adena"},{"ID":"44","0":"44","NPC_ID":"18050","1":"18050","ITEM_ID":"57","2":"57","MIN":"902","3":"902","MAX":"1804","4":"1804","CATEGORY":"0","5":"0","CHANCE":"700000","6":"700000","NAME":"Adena","7":"Adena"},{"ID":"45","0":"45","NPC_ID":"18052","1":"18052","ITEM_ID":"57","2":"57","MIN":"902","3":"902","MAX":"1804","4":"1804","CATEGORY":"0","5":"0","CHANCE":"700000","6":"700000","NAME":"Adena","7":"Adena"},{"ID":"46","0":"46","NPC_ID":"18053","1":"18053","ITEM_ID":"57","2":"57","MIN":"902","3":"902","MAX":"1804","4":"1804","CATEGORY":"0","5":"0","CHANCE":"700000","6":"700000","NAME":"Adena","7":"Adena"},{"ID":"47","0":"47","NPC_ID":"18054","1":"18054","ITEM_ID":"57","2":"57","MIN":"902","3":"902","MAX":"1804","4":"1804","CATEGORY":"0","5":"0","CHANCE":"700000","6":"700000","NAME":"Adena","7":"Adena"},{"ID":"48","0":"48","NPC_ID":"18055","1":"18055","ITEM_ID":"57","2":"57","MIN":"902","3":"902","MAX":"1804","4":"1804","CATEGORY":"0","5":"0","CHANCE":"700000","6":"700000","NAME":"Adena","7":"Adena"},{"ID":"49","0":"49","NPC_ID":"18057","1":"18057","ITEM_ID":"57","2":"57","MIN":"902","3":"902","MAX":"1804","4":"1804","CATEGORY":"0","5":"0","CHANCE":"700000","6":"700000","NAME":"Adena","7":"Adena"},{"ID":"50","0":"50","NPC_ID":"18058","1":"18058","ITEM_ID":"57","2":"57","MIN":"902","3":"902","MAX":"1804","4":"1804","CATEGORY":"0","5":"0","CHANCE":"700000","6":"700000","NAME":"Adena","7":"Adena"},{"ID":"51","0":"51","NPC_ID":"18060","1":"18060","ITEM_ID":"57","2":"57","MIN":"173","3":"173","MAX":"347","4":"347","CATEGORY":"0","5":"0","CHANCE":"700000","6":"700000","NAME":"Adena","7":"Adena"},{"ID":"52","0":"52","NPC_ID":"18062","1":"18062","ITEM_ID":"57","2":"57","MIN":"148","3":"148","MAX":"293","4":"293","CATEGORY":"0","5":"0","CHANCE":"700000","6":"700000","NAME":"Adena","7":"Adena"},{"ID":"53","0":"53","NPC_ID":"18063","1":"18063","ITEM_ID":"57","2":"57","MIN":"148","3":"148","MAX":"293","4":"293","CATEGORY":"0","5":"0","CHANCE":"700000","6":"700000","NAME":"Adena","7":"Adena"},{"ID":"54","0":"54","NPC_ID":"18064","1":"18064","ITEM_ID":"57","2":"57","MIN":"228","3":"228","MAX":"455","4":"455","CATEGORY":"0","5":"0","CHANCE":"700000","6":"700000","NAME":"Adena","7":"Adena"},{"ID":"55","0":"55","NPC_ID":"18065","1":"18065","ITEM_ID":"57","2":"57","MIN":"194","3":"194","MAX":"387","4":"387","CATEGORY":"0","5":"0","CHANCE":"700000","6":"700000","NAME":"Adena","7":"Adena"},{"ID":"56","0":"56","NPC_ID":"18067","1":"18067","ITEM_ID":"57","2":"57","MIN":"194","3":"194","MAX":"387","4":"387","CATEGORY":"0","5":"0","CHANCE":"700000","6":"700000","NAME":"Adena","7":"Adena"},{"ID":"57","0":"57","NPC_ID":"18068","1":"18068","ITEM_ID":"57","2":"57","MIN":"253","3":"253","MAX":"504","4":"504","CATEGORY":"0","5":"0","CHANCE":"700000","6":"700000","NAME":"Adena","7":"Adena"},{"ID":"58","0":"58","NPC_ID":"18070","1":"18070","ITEM_ID":"57","2":"57","MIN":"305","3":"305","MAX":"611","4":"611","CATEGORY":"0","5":"0","CHANCE":"700000","6":"700000","NAME":"Adena","7":"Adena"},{"ID":"59","0":"59","NPC_ID":"18072","1":"18072","ITEM_ID":"57","2":"57","MIN":"265","3":"265","MAX":"529","4":"529","CATEGORY":"0","5":"0","CHANCE":"700000","6":"700000","NAME":"Adena","7":"Adena"},{"ID":"60","0":"60","NPC_ID":"18073","1":"18073","ITEM_ID":"57","2":"57","MIN":"265","3":"265","MAX":"529","4":"529","CATEGORY":"0","5":"0","CHANCE":"700000","6":"700000","NAME":"Adena","7":"Adena"},{"ID":"61","0":"61","NPC_ID":"18074","1":"18074","ITEM_ID":"57","2":"57","MIN":"381","3":"381","MAX":"761","4":"761","CATEGORY":"0","5":"0","CHANCE":"700000","6":"700000","NAME":"Adena","7":"Adena"},{"ID":"62","0":"62","NPC_ID":"18075","1":"18075","ITEM_ID":"57","2":"57","MIN":"335","3":"335","MAX":"669","4":"669","CATEGORY":"0","5":"0","CHANCE":"700000","6":"700000","NAME":"Adena","7":"Adena"},{"ID":"63","0":"63","NPC_ID":"18077","1":"18077","ITEM_ID":"57","2":"57","MIN":"335","3":"335","MAX":"669","4":"669","CATEGORY":"0","5":"0","CHANCE":"700000","6":"700000","NAME":"Adena","7":"Adena"},{"ID":"64","0":"64","NPC_ID":"18078","1":"18078","ITEM_ID":"57","2":"57","MIN":"414","3":"414","MAX":"829","4":"829","CATEGORY":"0","5":"0","CHANCE":"700000","6":"700000","NAME":"Adena","7":"Adena"},{"ID":"65","0":"65","NPC_ID":"18080","1":"18080","ITEM_ID":"57","2":"57","MIN":"486","3":"486","MAX":"972","4":"972","CATEGORY":"0","5":"0","CHANCE":"700000","6":"700000","NAME":"Adena","7":"Adena"},{"ID":"66","0":"66","NPC_ID":"18082","1":"18082","ITEM_ID":"57","2":"57","MIN":"431","3":"431","MAX":"863","4":"863","CATEGORY":"0","5":"0","CHANCE":"700000","6":"700000","NAME":"Adena","7":"Adena"},{"ID":"67","0":"67","NPC_ID":"18083","1":"18083","ITEM_ID":"57","2":"57","MIN":"431","3":"431","MAX":"863","4":"863","CATEGORY":"0","5":"0","CHANCE":"700000","6":"700000","NAME":"Adena","7":"Adena"},{"ID":"68","0":"68","NPC_ID":"18084","1":"18084","ITEM_ID":"57","2":"57","MIN":"585","3":"585","MAX":"1171","4":"1171","CATEGORY":"0","5":"0","CHANCE":"700000","6":"700000","NAME":"Adena","7":"Adena"},{"ID":"69","0":"69","NPC_ID":"18085","1":"18085","ITEM_ID":"57","2":"57","MIN":"525","3":"525","MAX":"1049","4":"1049","CATEGORY":"0","5":"0","CHANCE":"700000","6":"700000","NAME":"Adena","7":"Adena"},{"ID":"70","0":"70","NPC_ID":"18087","1":"18087","ITEM_ID":"57","2":"57","MIN":"525","3":"525","MAX":"1049","4":"1049","CATEGORY":"0","5":"0","CHANCE":"700000","6":"700000","NAME":"Adena","7":"Adena"},{"ID":"71","0":"71","NPC_ID":"18088","1":"18088","ITEM_ID":"57","2":"57","MIN":"629","3":"629","MAX":"1257","4":"1257","CATEGORY":"0","5":"0","CHANCE":"700000","6":"700000","NAME":"Adena","7":"Adena"},{"ID":"72","0":"72","NPC_ID":"18090","1":"18090","ITEM_ID":"57","2":"57","MIN":"721","3":"721","MAX":"1443","4":"1443","CATEGORY":"0","5":"0","CHANCE":"700000","6":"700000","NAME":"Adena","7":"Adena"},{"ID":"73","0":"73","NPC_ID":"18092","1":"18092","ITEM_ID":"57","2":"57","MIN":"651","3":"651","MAX":"1302","4":"1302","CATEGORY":"0","5":"0","CHANCE":"700000","6":"700000","NAME":"Adena","7":"Adena"},{"ID":"74","0":"74","NPC_ID":"18093","1":"18093","ITEM_ID":"57","2":"57","MIN":"651","3":"651","MAX":"1302","4":"1302","CATEGORY":"0","5":"0","CHANCE":"700000","6":"700000","NAME":"Adena","7":"Adena"},{"ID":"75","0":"75","NPC_ID":"18094","1":"18094","ITEM_ID":"57","2":"57","MIN":"848","3":"848","MAX":"1697","4":"1697","CATEGORY":"0","5":"0","CHANCE":"700000","6":"700000","NAME":"Adena","7":"Adena"},{"ID":"76","0":"76","NPC_ID":"18095","1":"18095","ITEM_ID":"57","2":"57","MIN":"770","3":"770","MAX":"1541","4":"1541","CATEGORY":"0","5":"0","CHANCE":"700000","6":"700000","NAME":"Adena","7":"Adena"},{"ID":"77","0":"77","NPC_ID":"18097","1":"18097","ITEM_ID":"57","2":"57","MIN":"770","3":"770","MAX":"1541","4":"1541","CATEGORY":"0","5":"0","CHANCE":"700000","6":"700000","NAME":"Adena","7":"Adena"},{"ID":"78","0":"78","NPC_ID":"18098","1":"18098","ITEM_ID":"57","2":"57","MIN":"902","3":"902","MAX":"1804","4":"1804","CATEGORY":"0","5":"0","CHANCE":"700000","6":"700000","NAME":"Adena","7":"Adena"},{"ID":"79","0":"79","NPC_ID":"18100","1":"18100","ITEM_ID":"57","2":"57","MIN":"902","3":"902","MAX":"1804","4":"1804","CATEGORY":"0","5":"0","CHANCE":"700000","6":"700000","NAME":"Adena","7":"Adena"},{"ID":"80","0":"80","NPC_ID":"18102","1":"18102","ITEM_ID":"57","2":"57","MIN":"902","3":"902","MAX":"1804","4":"1804","CATEGORY":"0","5":"0","CHANCE":"700000","6":"700000","NAME":"Adena","7":"Adena"},{"ID":"81","0":"81","NPC_ID":"18103","1":"18103","ITEM_ID":"57","2":"57","MIN":"902","3":"902","MAX":"1804","4":"1804","CATEGORY":"0","5":"0","CHANCE":"700000","6":"700000","NAME":"Adena","7":"Adena"},{"ID":"82","0":"82","NPC_ID":"18104","1":"18104","ITEM_ID":"57","2":"57","MIN":"902","3":"902","MAX":"1804","4":"1804","CATEGORY":"0","5":"0","CHANCE":"700000","6":"700000","NAME":"Adena","7":"Adena"},{"ID":"83","0":"83","NPC_ID":"18105","1":"18105","ITEM_ID":"57","2":"57","MIN":"902","3":"902","MAX":"1804","4":"1804","CATEGORY":"0","5":"0","CHANCE":"700000","6":"700000","NAME":"Adena","7":"Adena"},{"ID":"84","0":"84","NPC_ID":"18107","1":"18107","ITEM_ID":"57","2":"57","MIN":"902","3":"902","MAX":"1804","4":"1804","CATEGORY":"0","5":"0","CHANCE":"700000","6":"700000","NAME":"Adena","7":"Adena"},{"ID":"85","0":"85","NPC_ID":"18108","1":"18108","ITEM_ID":"57","2":"57","MIN":"902","3":"902","MAX":"1804","4":"1804","CATEGORY":"0","5":"0","CHANCE":"700000","6":"700000","NAME":"Adena","7":"Adena"},{"ID":"86","0":"86","NPC_ID":"18109","1":"18109","ITEM_ID":"955","2":"955","MIN":"1","3":"1","MAX":"1","4":"1","CATEGORY":"2","5":"2","CHANCE":"2000","6":"2000","NAME":"Scroll: Enchant Weapon (D)","7":"Scroll: Enchant Weapon (D)"},{"ID":"87","0":"87","NPC_ID":"18109","1":"18109","ITEM_ID":"956","2":"956","MIN":"1","3":"1","MAX":"1","4":"1","CATEGORY":"2","5":"2","CHANCE":"15000","6":"15000","NAME":"Scroll: Enchant Armor (D)","7":"Scroll: Enchant Armor (D)"},{"ID":"88","0":"88","NPC_ID":"18109","1":"18109","ITEM_ID":"1060","2":"1060","MIN":"1","3":"1","MAX":"1","4":"1","CATEGORY":"2","5":"2","CHANCE":"50000","6":"50000","NAME":"Lesser Healing Potion","7":"Lesser Healing Potion"},{"ID":"89","0":"89","NPC_ID":"18109","1":"18109","ITEM_ID":"1061","2":"1061","MIN":"1","3":"1","MAX":"1","4":"1","CATEGORY":"2","5":"2","CHANCE":"50000","6":"50000","NAME":"Healing Potion","7":"Healing Potion"},{"ID":"90","0":"90","NPC_ID":"18110","1":"18110","ITEM_ID":"951","2":"951","MIN":"1","3":"1","MAX":"1","4":"1","CATEGORY":"2","5":"2","CHANCE":"1500","6":"1500","NAME":"Scroll: Enchant Weapon (C)","7":"Scroll: Enchant Weapon (C)"},{"ID":"91","0":"91","NPC_ID":"18110","1":"18110","ITEM_ID":"952","2":"952","MIN":"1","3":"1","MAX":"1","4":"1","CATEGORY":"2","5":"2","CHANCE":"12000","6":"12000","NAME":"Scroll: Enchant Armor (C)","7":"Scroll: Enchant Armor (C)"},{"ID":"92","0":"92","NPC_ID":"18110","1":"18110","ITEM_ID":"1061","2":"1061","MIN":"1","3":"1","MAX":"1","4":"1","CATEGORY":"2","5":"2","CHANCE":"50000","6":"50000","NAME":"Healing Potion","7":"Healing Potion"},{"ID":"93","0":"93","NPC_ID":"18110","1":"18110","ITEM_ID":"1832","2":"1832","MIN":"1","3":"1","MAX":"1","4":"1","CATEGORY":"2","5":"2","CHANCE":"25000","6":"25000","NAME":"Greater Antidote","7":"Greater Antidote"},{"ID":"94","0":"94","NPC_ID":"18110","1":"18110","ITEM_ID":"1834","2":"1834","MIN":"1","3":"1","MAX":"1","4":"1","CATEGORY":"2","5":"2","CHANCE":"25000","6":"25000","NAME":"Emergency Dressing","7":"Emergency Dressing"},{"ID":"95","0":"95","NPC_ID":"18111","1":"18111","ITEM_ID":"734","2":"734","MIN":"1","3":"1","MAX":"1","4":"1","CATEGORY":"2","5":"2","CHANCE":"25000","6":"25000","NAME":"Haste Potion","7":"Haste Potion"},{"ID":"96","0":"96","NPC_ID":"18111","1":"18111","ITEM_ID":"735","2":"735","MIN":"1","3":"1","MAX":"1","4":"1","CATEGORY":"2","5":"2","CHANCE":"25000","6":"25000","NAME":"Potion of Alacrity","7":"Potion of Alacrity"},{"ID":"97","0":"97","NPC_ID":"18111","1":"18111","ITEM_ID":"951","2":"951","MIN":"1","3":"1","MAX":"1","4":"1","CATEGORY":"2","5":"2","CHANCE":"2000","6":"2000","NAME":"Scroll: Enchant Weapon (C)","7":"Scroll: Enchant Weapon (C)"},{"ID":"98","0":"98","NPC_ID":"18111","1":"18111","ITEM_ID":"952","2":"952","MIN":"1","3":"1","MAX":"1","4":"1","CATEGORY":"2","5":"2","CHANCE":"18000","6":"18000","NAME":"Scroll: Enchant Armor (C)","7":"Scroll: Enchant Armor (C)"},{"ID":"99","0":"99","NPC_ID":"18111","1":"18111","ITEM_ID":"1539","2":"1539","MIN":"1","3":"1","MAX":"1","4":"1","CATEGORY":"2","5":"2","CHANCE":"50000","6":"50000","NAME":"Greater Healing Potion","7":"Greater Healing Potion"}],"pagination":{"total":27574,"lastPage":276,"currentPage":1,"from":1,"to":100}}